{"artists":{"href":"https://api.spotify.com/v1/search?query=The+Tyets&type=artist&locale=*&offset=0&limit=20","items":[{"external_urls":{"spotify":"https://open.spotify.com/artist/6I63R76ouyFvUIwPggQxxT"},"followers":{"href":null,"total":95579},"genres":["musica catalana","trap catala"],"href":"https://api.spotify.com/v1/artists/6I63R76ouyFvUIwPggQxxT","id":"6I63R76ouyFvUIwPggQxxT","images":[{"height":640,"url":"https://i.scdn.co/image/ab6761610000e5ebb02f357790e5b7a40cc6a352","width":640},{"height":320,"url":"https://i.scdn.co/image/ab67616100005174b02f357790e5b7a40cc6a352","width":320},{"height":160,"url":"https://i.scdn.co/image/ab6761610000f178b02f357790e5b7a40cc6a352","width":160}],"name":"The Tyets","popularity":59,"type":"artist","uri":"spotify:artist:6I63R76ouyFvUIwPggQxxT"},{"external_urls":{"spotify":"https://open.spotify.com/artist/0a1BmEq1mZ5ufKMC2fsziR"},"followers":{"href":null,"total":13821},"genres":["beach music","doo-wop","philly soul","rhythm and blues"],"href":"https://api.spotify.com/v1/artists/0a1BmEq1mZ5ufKMC2fsziR","id":"0a1BmEq1mZ5ufKMC2fsziR","images":[{"height":640,"url":"https://i.scdn.co/image/ab67616d0000b273f5dbd094eb3b0306b1f6d549","width":640},{"height":300,"url":"https://i.scdn.co/image/ab67616d00001e02f5dbd094eb3b0306b1f6d549","width":300},{"height":64,"url":"https://i.scdn.co/image/ab67616d00004851f5dbd094eb3b0306b1f6d549","width":64}],"name":"The Tymes","popularity":31,"type":"artist","uri":"spotify:artist:0a1BmEq1mZ5ufKMC2fsziR"},{"external_urls":{"spotify":"https://open.spotify.com/artist/4qHxvugRMvUL4mrGSQodD8"},"followers":{"href":null,"total":3},"genres":[],"href":"https://api.spotify.com/v1/artists/4qHxvugRMvUL4mrGSQodD8","id":"4qHxvugRMvUL4mrGSQodD8","images":[],"name":"The Tyets","popularity":0,"type":"artist","uri":"spotify:artist:4qHxvugRMvUL4mrGSQodD8"},{"external_urls":{"spotify":"https://open.spotify.com/artist/7M5pDtJpCdnftEQZtczYco"},"followers":{"href":null,"total":1172090},"genres":[],"href":"https://api.spotify.com/v1/artists/7M5pDtJpCdnftEQZtczYco","id":"7M5pDtJpCdnftEQZtczYco","images":[{"height":640,"url":"https://i.scdn.co/image/ab6761610000e5eba848c4cdfd0fa81fecb87fb8","width":640},{"height":320,"url":"https://i.scdn.co/image/ab67616100005174a848c4cdfd0fa81fecb87fb8","width":320},{"height":160,"url":"https://i.scdn.co/image/ab6761610000f178a848c4cdfd0fa81fecb87fb8","width":160}],"name":"Ayesha Erotica","popularity":70,"type":"artist","uri":"spotify:artist:7M5pDtJpCdnftEQZtczYco"},{"external_urls":{"spotify":"https://open.spotify.com/artist/488hYoxhHyLW7lGDmWy9Ci"},"followers":{"href":null,"total":75},"genres":[],"href":"https://api.spotify.com/v1/artists/488hYoxhHyLW7lGDmWy9Ci","id":"488hYoxhHyLW7lGDmWy9Ci","images":[{"height":640,"url":"https://i.scdn.co/image/ab6761610000e5ebd49f9e1465b4c9b397e57d00","width":640},{"height":320,"url":"https://i.scdn.co/image/ab67616100005174d49f9e1465b4c9b397e57d00","width":320},{"height":160,"url":"https://i.scdn.co/image/ab6761610000f178d49f9e1465b4c9b397e57d00","width":160}],"name":"The Tey","popularity":17,"type":"artist","uri":"spotify:artist:488hYoxhHyLW7lGDmWy9Ci"},{"external_urls":{"spotify":"https://open.spotify.com/artist/2nTjd2lNo1GVEfXM3bCnsh"},"followers":{"href":null,"total":814218},"genres":["australian americana"],"href":"https://api.spotify.com/v1/artists/2nTjd2lNo1GVEfXM3bCnsh","id":"2nTjd2lNo1GVEfXM3bCnsh","images":[{"height":640,"url":"https://i.scdn.co/image/ab6761610000e5ebbaf7e1f882e784750e6d7745","width":640},{"height":320,"url":"https://i.scdn.co/image/ab67616100005174baf7e1f882e784750e6d7745","width":320},{"height":160,"url":"https://i.scdn.co/image/ab6761610000f178baf7e1f882e784750e6d7745","width":160}],"name":"The Teskey Brothers","popularity":66,"type":"artist","uri":"spotify:artist:2nTjd2lNo1GVEfXM3bCnsh"},{"external_urls":{"spotify":"https://open.spotify.com/artist/2erVTUGh7hd5PQ3qwChdxw"},"followers":{"href":null,"total":13149},"genres":["retro soul"],"href":"https://api.spotify.com/v1/artists/2erVTUGh7hd5PQ3qwChdxw","id":"2erVTUGh7hd5PQ3qwChdxw","images":[{"height":640,"url":"https://i.scdn.co/image/ab6761610000e5ebfab526d6554f7726dbc10da8","width":640},{"height":320,"url":"https://i.scdn.co/image/ab67616100005174fab526d6554f7726dbc10da8","width":320},{"height":160,"url":"https://i.scdn.co/image/ab6761610000f178fab526d6554f7726dbc10da8","width":160}],"name":"The Tibbs","popularity":40,"type":"artist","uri":"spotify:artist:2erVTUGh7hd5PQ3qwChdxw"},{"external_urls":{"spotify":"https://open.spotify.com/artist/3AHq6rutf72JF0ul8GB6G2"},"followers":{"href":null,"total":319019},"genres":["freestyle","minneapolis sound"],"href":"https://api.spotify.com/v1/artists/3AHq6rutf72JF0ul8GB6G2","id":"3AHq6rutf72JF0ul8GB6G2","images":[{"height":1000,"url":"https://i.scdn.co/image/088e8190270f14d67c666f9d4794038efcab4c24","width":1000},{"height":640,"url":"https://i.scdn.co/image/6f929b734d60f40001d4c4db7e8ad2a683eee6a3","width":640},{"height":200,"url":"https://i.scdn.co/image/f8bef923cb54d3b4f0bf9c5b685a755bdff11ff9","width":200},{"height":64,"url":"https://i.scdn.co/image/15b04c28f758607419b44beca3e659d3b8cb8380","width":64}],"name":"The Jets","popularity":48,"type":"artist","uri":"spotify:artist:3AHq6rutf72JF0ul8GB6G2"},{"external_urls":{"spotify":"https://open.spotify.com/artist/689hvcJfLcbGOIkqVCIBJR"},"followers":{"href":null,"total":4905},"genres":[],"href":"https://api.spotify.com/v1/artists/689hvcJfLcbGOIkqVCIBJR","id":"689hvcJfLcbGOIkqVCIBJR","images":[{"height":640,"url":"https://i.scdn.co/image/ab67616d0000b273dc4abad6d652d9e1e38db0f0","width":640},{"height":300,"url":"https://i.scdn.co/image/ab67616d00001e02dc4abad6d652d9e1e38db0f0","width":300},{"height":64,"url":"https://i.scdn.co/image/ab67616d00004851dc4abad6d652d9e1e38db0f0","width":64}],"name":"The Toyes","popularity":26,"type":"artist","uri":"spotify:artist:689hvcJfLcbGOIkqVCIBJR"},{"external_urls":{"spotify":"https://open.spotify.com/artist/5V7NIXgCnX2KuQ01Bxg20c"},"followers":{"href":null,"total":95794},"genres":["experimental bass","glitch hop"],"href":"https://api.spotify.com/v1/artists/5V7NIXgCnX2KuQ01Bxg20c","id":"5V7NIXgCnX2KuQ01Bxg20c","images":[{"height":640,"url":"https://i.scdn.co/image/ab6761610000e5eb44fa8c62d9694a0c9ad5a86d","width":640},{"height":320,"url":"https://i.scdn.co/image/ab6761610000517444fa8c62d9694a0c9ad5a86d","width":320},{"height":160,"url":"https://i.scdn.co/image/ab6761610000f17844fa8c62d9694a0c9ad5a86d","width":160}],"name":"Of The Trees","popularity":51,"type":"artist","uri":"spotify:artist:5V7NIXgCnX2KuQ01Bxg20c"},{"external_urls":{"spotify":"https://open.spotify.com/artist/7joa2pgisod1knsgxUU2tv"},"followers":{"href":null,"total":97},"genres":[],"href":"https://api.spotify.com/v1/artists/7joa2pgisod1knsgxUU2tv","id":"7joa2pgisod1knsgxUU2tv","images":[{"height":640,"url":"https://i.scdn.co/image/ab67616d0000b273b7c0b7c3cd0802695d71d2b8","width":640},{"height":300,"url":"https://i.scdn.co/image/ab67616d00001e02b7c0b7c3cd0802695d71d2b8","width":300},{"height":64,"url":"https://i.scdn.co/image/ab67616d00004851b7c0b7c3cd0802695d71d2b8","width":64}],"name":"The Tyrones","popularity":4,"type":"artist","uri":"spotify:artist:7joa2pgisod1knsgxUU2tv"},{"external_urls":{"spotify":"https://open.spotify.com/artist/1i4iT0Sw4OUeMp7egnsbxR"},"followers":{"href":null,"total":39673},"genres":["afrobeat","bboy"],"href":"https://api.spotify.com/v1/artists/1i4iT0Sw4OUeMp7egnsbxR","id":"1i4iT0Sw4OUeMp7egnsbxR","images":[{"height":640,"url":"https://i.scdn.co/image/ab67616d0000b27300480b40ecb0216866fb7c4f","width":640},{"height":300,"url":"https://i.scdn.co/image/ab67616d00001e0200480b40ecb0216866fb7c4f","width":300},{"height":64,"url":"https://i.scdn.co/image/ab67616d0000485100480b40ecb0216866fb7c4f","width":64}],"name":"The Poets Of Rhythm","popularity":40,"type":"artist","uri":"spotify:artist:1i4iT0Sw4OUeMp7egnsbxR"},{"external_urls":{"spotify":"https://open.spotify.com/artist/034JSYadRJsXRgY61c7HSq"},"followers":{"href":null,"total":9406},"genres":["indie punk","indie surf","riot grrrl","uk pop punk"],"href":"https://api.spotify.com/v1/artists/034JSYadRJsXRgY61c7HSq","id":"034JSYadRJsXRgY61c7HSq","images":[{"height":640,"url":"https://i.scdn.co/image/ab6761610000e5eb825fa2683527ede811f68004","width":640},{"height":320,"url":"https://i.scdn.co/image/ab67616100005174825fa2683527ede811f68004","width":320},{"height":160,"url":"https://i.scdn.co/image/ab6761610000f178825fa2683527ede811f68004","width":160}],"name":"The Tuts","popularity":13,"type":"artist","uri":"spotify:artist:034JSYadRJsXRgY61c7HSq"},{"external_urls":{"spotify":"https://open.spotify.com/artist/2mCd5QO8EUB5rmbGUbCrTJ"},"followers":{"href":null,"total":105371},"genres":["canadian indie","canadian rock"],"href":"https://api.spotify.com/v1/artists/2mCd5QO8EUB5rmbGUbCrTJ","id":"2mCd5QO8EUB5rmbGUbCrTJ","images":[{"height":640,"url":"https://i.scdn.co/image/ab6761610000e5eb01f75b45c306b257969485dd","width":640},{"height":320,"url":"https://i.scdn.co/image/ab6761610000517401f75b45c306b257969485dd","width":320},{"height":160,"url":"https://i.scdn.co/image/ab6761610000f17801f75b45c306b257969485dd","width":160}],"name":"The Trews","popularity":41,"type":"artist","uri":"spotify:artist:2mCd5QO8EUB5rmbGUbCrTJ"},{"external_urls":{"spotify":"https://open.spotify.com/artist/3mqFKiCvxacWEy7rzKSe12"},"followers":{"href":null,"total":8766},"genres":[],"href":"https://api.spotify.com/v1/artists/3mqFKiCvxacWEy7rzKSe12","id":"3mqFKiCvxacWEy7rzKSe12","images":[{"height":640,"url":"https://i.scdn.co/image/ab6761610000e5eb032779a48845f77d89ff314b","width":640},{"height":320,"url":"https://i.scdn.co/image/ab67616100005174032779a48845f77d89ff314b","width":320},{"height":160,"url":"https://i.scdn.co/image/ab6761610000f178032779a48845f77d89ff314b","width":160}],"name":"The Tiarras","popularity":12,"type":"artist","uri":"spotify:artist:3mqFKiCvxacWEy7rzKSe12"},{"external_urls":{"spotify":"https://open.spotify.com/artist/6mPVyXVEtodJcnf9AhjCHN"},"followers":{"href":null,"total":11376},"genres":["philly indie"],"href":"https://api.spotify.com/v1/artists/6mPVyXVEtodJcnf9AhjCHN","id":"6mPVyXVEtodJcnf9AhjCHN","images":[{"height":640,"url":"https://i.scdn.co/image/ab6761610000e5eb95593ade14cc46415df324b4","width":640},{"height":320,"url":"https://i.scdn.co/image/ab6761610000517495593ade14cc46415df324b4","width":320},{"height":160,"url":"https://i.scdn.co/image/ab6761610000f17895593ade14cc46415df324b4","width":160}],"name":"The Teeth","popularity":29,"type":"artist","uri":"spotify:artist:6mPVyXVEtodJcnf9AhjCHN"},{"external_urls":{"spotify":"https://open.spotify.com/artist/7pTkz7PHtfEbAC3g1uJPQ3"},"followers":{"href":null,"total":3},"genres":[],"href":"https://api.spotify.com/v1/artists/7pTkz7PHtfEbAC3g1uJPQ3","id":"7pTkz7PHtfEbAC3g1uJPQ3","images":[],"name":"The Toughs","popularity":5,"type":"artist","uri":"spotify:artist:7pTkz7PHtfEbAC3g1uJPQ3"},{"external_urls":{"spotify":"https://open.spotify.com/artist/62IQZuQTkFjAkSp6MjOMPc"},"followers":{"href":null,"total":161},"genres":[],"href":"https://api.spotify.com/v1/artists/62IQZuQTkFjAkSp6MjOMPc","id":"62IQZuQTkFjAkSp6MjOMPc","images":[{"height":640,"url":"https://i.scdn.co/image/ab67616d0000b273e5f7cd29f090e97f044672c6","width":640},{"height":300,"url":"https://i.scdn.co/image/ab67616d00001e02e5f7cd29f090e97f044672c6","width":300},{"height":64,"url":"https://i.scdn.co/image/ab67616d00004851e5f7cd29f090e97f044672c6","width":64}],"name":"The Tibbs","popularity":14,"type":"artist","uri":"spotify:artist:62IQZuQTkFjAkSp6MjOMPc"},{"external_urls":{"spotify":"https://open.spotify.com/artist/7Em1WVZTqeuEddJ5D4YuAT"},"followers":{"href":null,"total":23441},"genres":["children's choir","jewish pop"],"href":"https://api.spotify.com/v1/artists/7Em1WVZTqeuEddJ5D4YuAT","id":"7Em1WVZTqeuEddJ5D4YuAT","images":[{"height":640,"url":"https://i.scdn.co/image/ab6761610000e5ebc6743074eb5fe31eb393fc81","width":640},{"height":320,"url":"https://i.scdn.co/image/ab67616100005174c6743074eb5fe31eb393fc81","width":320},{"height":160,"url":"https://i.scdn.co/image/ab6761610000f178c6743074eb5fe31eb393fc81","width":160}],"name":"The Yeshiva Boys Choir","popularity":28,"type":"artist","uri":"spotify:artist:7Em1WVZTqeuEddJ5D4YuAT"},{"external_urls":{"spotify":"https://open.spotify.com/artist/13H2OjdYOZTPtH1aUKc7C5"},"followers":{"href":null,"total":201},"genres":[],"href":"https://api.spotify.com/v1/artists/13H2OjdYOZTPtH1aUKc7C5","id":"13H2OjdYOZTPtH1aUKc7C5","images":[{"height":640,"url":"https://i.scdn.co/image/ab6761610000e5eb04e1cd605bf0b4324cdb17a9","width":640},{"height":320,"url":"https://i.scdn.co/image/ab6761610000517404e1cd605bf0b4324cdb17a9","width":320},{"height":160,"url":"https://i.scdn.co/image/ab6761610000f17804e1cd605bf0b4324cdb17a9","width":160}],"name":"The Tits","popularity":2,"type":"artist","uri":"spotify:artist:13H2OjdYOZTPtH1aUKc7C5"}],"limit":20,"next":"https://api.spotify.com/v1/search?query=The+Tyets&type=artist&locale=*&offset=20&limit=20","offset":0,"previous":null,"total":79}}